{
  "sections": {
    "main": {
      "type": "main-page",
      "disabled": true,
      "settings": {}
    },
    "rich-text": {
      "type": "rich-text",
      "blocks": {
        "heading": {
          "type": "heading",
          "disabled": true,
          "settings": {
            "title": "Get in touch"
          }
        },
        "text": {
          "type": "text",
          "settings": {
            "enlarge_text": true,
            "text": "<p>Sie haben Fragen oder möchten mit uns Kontakt aufnehmen?<br\/>Dann schreiben Sie uns über das folgende Kontaktformular.<\/p>"
          }
        }
      },
      "block_order": [
        "heading",
        "text"
      ],
      "settings": {
        "align_text": "center",
        "narrow_column": true,
        "divider": false
      }
    },
    "form": {
      "type": "contact-form",
      "settings": {
        "title": "Ihre Frage an unseren Kundendienst",
        "text": "",
        "show_phone": false,
        "narrow_column": true
      }
    }
  },
  "order": [
    "main",
    "rich-text",
    "form"
  ]
}