{
  "sections": {
    "main": {
      "type": "main-product",
      "blocks": {
        "12a63a75-f534-4682-b67f-5ae94014a057": {
          "type": "separator",
          "settings": {}
        },
        "description": {
          "type": "description",
          "settings": {
            "is_tab": false
          }
        },
        "tab": {
          "type": "tab",
          "disabled": true,
          "settings": {
            "title": "Verpackungsvarianten",
            "content": "<p><strong>Large: <\/strong>1200gr (30 Portionen) in der rezyklierbar und biologisch abbaubaren Verpackung. Wiederverschliessbar mittels mitgelieferten Lindenholz-Klipp.  <\/p><p><strong>Medium: <\/strong>560gr (14 Portionen) in der rezyklierbar und biologisch abbaubaren Verpackung. Wiederverschliessbar mittels mitgelieferten Lindenholz-Klipp.  <\/p><p>In der wieder befüllbaren und nachhaltigen <strong>Weissblechdose: <\/strong>1200gr (30 Portionen) in der rezyklierbar und biologisch abbaubaren Verpackung. Wiederverschliessbar mittels mitgelieferten Lindenholz-Klipp. <\/p><p><strong>Refill<\/strong> (Nachfüllpackung): 1200gr (30 Portionen) im biologisch abbaubaren Beutel. <\/p>",
            "page": ""
          }
        },
        "price": {
          "type": "price",
          "settings": {}
        },
        "separator": {
          "type": "separator",
          "settings": {}
        },
        "variant_picker": {
          "type": "variant_picker",
          "settings": {
            "variant_labels": true,
            "picker_type": "button",
            "color_swatches": false
          }
        },
        "a0815aef-148a-40cb-8eb0-a96788f7f008": {
          "type": "quantity_selector",
          "settings": {}
        },
        "buy_buttons": {
          "type": "buy_buttons",
          "settings": {
            "show_dynamic_checkout": false,
            "surface_pickup_enable": true
          }
        },
        "ca6b4bcb-eae1-4e19-8e4a-ccd861e81a10": {
          "type": "tab",
          "disabled": true,
          "settings": {
            "title": "Wie nehme ich Immunoglobulinconcentrate & Probiotics ein?",
            "content": "<p>2 x 2 Kapseln täglich unzerkaut mit<\/p><p>viel Flüssigkeit.<\/p>",
            "page": ""
          }
        },
        "contact": {
          "type": "contact",
          "settings": {
            "title": "Ihre Frage an unseren Kundendienst",
            "phone": true
          }
        }
      },
      "block_order": [
        "12a63a75-f534-4682-b67f-5ae94014a057",
        "description",
        "tab",
        "price",
        "separator",
        "variant_picker",
        "a0815aef-148a-40cb-8eb0-a96788f7f008",
        "buy_buttons",
        "ca6b4bcb-eae1-4e19-8e4a-ccd861e81a10",
        "contact"
      ],
      "settings": {
        "sku_enable": false,
        "image_size": "medium",
        "product_zoom_enable": true,
        "thumbnail_position": "below",
        "thumbnail_arrows": false,
        "enable_video_looping": true,
        "product_video_style": "muted"
      }
    },
    "sub": {
      "type": "product-full-width",
      "disabled": true,
      "settings": {
        "max_width": true
      }
    },
    "1643967348536bd219": {
      "type": "collection-callout",
      "disabled": true,
      "settings": {
        "collection": "swiss-smartfood",
        "subtitle": "nahrung fürs leben",
        "title": "Swiss Smartfood®",
        "text": "Gut und genussvoll essen. Schnell zubereitete feine Bio-Mahlzeiten und Bio-Snacks, vollgepackt mit erlesenen, natürlichen Zutaten.",
        "cta_text1": "zu den Produkten",
        "cta_link1": "shopify:\/\/collections\/swiss-smartfood",
        "cta_text2": "",
        "cta_link2": "",
        "layout": "right",
        "divider": false
      }
    },
    "16439624064a93d993": {
      "type": "background-video-text",
      "settings": {
        "subtitle": "BE THE CHANGE",
        "title": "Nahrung fürs Leben.",
        "text": "<p>Wir treiben den Wandel unserer Produkte ständig voran, indem wir sie stets gesünder, schmackhafter und mit dem neuesten Stand der Technik nachhaltiger machen.<\/p>",
        "button_label": "BE THE CHANGE kennenlernen",
        "button_link": "https:\/\/vimeo.com\/673127109",
        "video_url": "https:\/\/vimeo.com\/673499837",
        "color_border": "#f4f4f4",
        "layout": "left",
        "height": 550
      }
    },
    "text-and-image": {
      "type": "text-and-image",
      "settings": {
        "image": "shopify:\/\/shop_images\/atelier_2.jpg",
        "image_width": 700,
        "subtitle": "unser",
        "title": "Atelier.",
        "text": "<p>Unsere Produkte werden ab Produktion in unserem Atelier mit viel Sorgfalt liebevoll von Hand verpackt. <\/p>",
        "button_label": "",
        "button_link": "",
        "button_style": "primary",
        "align_text": "left",
        "layout": "right",
        "divider": false
      }
    },
    "text-and-image2": {
      "type": "text-and-image",
      "settings": {
        "image": "shopify:\/\/shop_images\/aterlier_detail_2.jpg",
        "image_width": 700,
        "subtitle": "Liebe zum Detail",
        "title": "Nachhaltige Qualität.",
        "text": "<p>Für uns ist Qualität Schönheit, auch bei unserern nachhaltigen Verpackungen.<\/p>",
        "button_label": "",
        "button_link": "",
        "button_style": "primary",
        "align_text": "left",
        "layout": "left",
        "divider": false
      }
    },
    "testimonials": {
      "type": "testimonials",
      "disabled": true,
      "blocks": {
        "testimonials-0": {
          "type": "testimonial",
          "settings": {
            "icon": "5-stars",
            "testimonial": "<p>Add customer reviews and testimonials to showcase your store’s happy customers.<\/p>",
            "author": "Author name",
            "author_info": "Los Angeles, CA"
          }
        },
        "testimonials-1": {
          "type": "testimonial",
          "settings": {
            "icon": "5-stars",
            "testimonial": "<p>Add customer reviews and testimonials to showcase your store’s happy customers.<\/p>",
            "author": "Author name",
            "author_info": "Los Angeles, CA"
          }
        },
        "testimonials-2": {
          "type": "testimonial",
          "settings": {
            "icon": "5-stars",
            "testimonial": "<p>Add customer reviews and testimonials to showcase your store’s happy customers.<\/p>",
            "author": "Author name",
            "author_info": "Los Angeles, CA"
          }
        }
      },
      "block_order": [
        "testimonials-0",
        "testimonials-1",
        "testimonials-2"
      ],
      "settings": {
        "title": "Don't take our word for it",
        "round_images": true,
        "color_background": "#f9f9f9",
        "color_text": "#1c1d1d"
      }
    },
    "product-recommendations": {
      "type": "product-recommendations",
      "settings": {
        "show_product_recommendations": true,
        "product_recommendations_heading": "Weitere Produkte",
        "related_count": 5
      }
    },
    "collection-return": {
      "type": "collection-return",
      "disabled": true,
      "settings": {}
    }
  },
  "order": [
    "main",
    "sub",
    "1643967348536bd219",
    "16439624064a93d993",
    "text-and-image",
    "text-and-image2",
    "testimonials",
    "product-recommendations",
    "collection-return"
  ]
}